C P / M   6 8 0 0 0   A s s e m b l e r		Revision 02.03		Page   1
Source File: stack.s

   1                               *************************************************************************
   2                               *                                                                       *
   3                               *                    THIS IS THE SYSTEM STACK AREA                      *
   4                               *                                                                       *
   5                               *                                                                       *
   6                               *          THIS IS THE DUAL PROCESSOR,ROMABLE CP/M-68K SYSTEM           *
   7                               *          ==================================================           *
   8                               *************************************************************************
   9                               
  10                                       .globl  stack
  11 00000000                              .bss
  12 00000000                              .ds.l   400
  13                               stack:
  14 00000640                              .ds.w   1
  15 00000642                              .end
C P / M   6 8 0 0 0   A s s e m b l e r		Revision 02.03		Page   2
Source File: stack.s

S y m b o l   T a b l e

stack     00000640 BSS   